# vtk DataFile Version 3.0
Mesh data
ASCII
DATASET UNSTRUCTURED_GRID
POINTS 662 float
1.0000000001543035 -4.545839399350271e-12 0.0
1.0000000001543035 0.05493956599263613 0.0
0.9580277909578657 0.059020715444174296 0.0
0.9347549457344855 0.03352519067480557 0.0
0.9362574194963786 -4.0325555394904455e-12 0.0
0.8697316612321948 -4.0325624783843494e-12 0.0
1.0000000001331548 0.11861497028817708 0.0
0.9556692427258455 0.11733041817087352 0.0
0.9427905290498819 0.09562450230127978 0.0
0.9010913110478258 0.09204002827575186 0.0
0.8918535634653069 0.05763965193222834 0.0
0.8712011598645402 0.04598542237104243 0.0
0.8404345146383652 0.06098885945260396 0.0
0.8070386552527952 0.03570020050645821 0.0
0.8079500037014096 -4.358024358053214e-12 0.0
1.0000000001331548 0.1771537987993885 0.0
0.9393251049019988 0.1491868665750853 0.0
0.9565624954179555 0.17742455892605988 0.0
0.8850989733546185 0.11444263390491417 0.0
0.9048894662983948 0.15014214135675133 0.0
0.8340153825571736 0.09218122357548399 0.0
0.8558925951089166 0.11604886183841537 0.0
0.7418567839472808 -4.077242016231608e-12 0.0
0.7990581476497426 0.10174755752464032 0.0
0.7721195747494216 0.0750983624372484 0.0
0.7723399725305761 0.06007640407247519 0.0
0.7416982897570737 0.03494722921397525 0.0
0.677589097510058 -4.22237245167878e-12 0.0
1.0000000001316267 0.236650761176257 0.0
0.9397141452149597 0.20826847587565558 0.0
0.9565933962666745 0.23660213054319584 0.0
0.8877252194904215 0.17830161773747824 0.0
0.9051930737497081 0.208307469427999 0.0
0.8382570447031881 0.15448472173399808 0.0
0.8543794138129602 0.17816623255271619 0.0
0.8010244486093635 0.15334053793748215 0.0
0.7895272757462604 0.13543398895743342 0.0
0.706272503129072 0.05747226154128208 0.0
0.6783512778312935 0.04057650219651475 0.0
0.7097112285716775 0.09041394154974364 0.0
0.743795769493608 0.13462080743659124 0.0
0.7348823552280753 0.10252858017031503 0.0
0.6157205655955962 -4.222379390572684e-12 0.0
0.6471130812424385 0.05976373570571133 0.0
0.6154880437941392 0.03807538173718143 0.0
1.0000000001319709 0.29566951750653614 0.0
1.0000000001314766 0.35429656556443934 0.0
0.9396376716691042 0.2672115142585248 0.0
0.9563804109939271 0.29561873828589025 0.0
1.000000000133761 0.4130767106468927 0.0
1.000000000133761 0.4704514672754014 0.0
0.9050711961770741 0.2671230673412366 0.0
0.8880250372131523 0.23855354040533566 0.0
0.8541288914146595 0.2384623582968197 0.0
0.8372097677659474 0.21228954249850088 0.0
0.7863672512133054 0.1880017190745335 0.0
0.8023790682059723 0.21230956897854011 0.0
0.7314941065218422 0.154449367147939 0.0
0.7502880153599906 0.1891054184992257 0.0
0.5528579045919608 -4.265969522077029e-12 0.0
0.4914828226681704 -4.2834971680782985e-12 0.0
0.6776073835145162 0.11131965574784158 0.0
0.6762514410870378 0.1306355874412976 0.0
0.645733648161484 0.08677443991879857 0.0
0.7008026138320901 0.15777398837843296 0.0
0.5833092400099091 0.059008280164260726 0.0
0.553277211167252 0.04019494920101742 0.0
0.5844338837394724 0.0880695800008815 0.0
0.6137384845159036 0.10527514448828278 0.0
0.9396187279436035 0.32597536845987884 0.0
0.9561154624778905 0.3543703012999572 0.0
0.9398237903185653 0.3840915007948946 0.0
0.956368811473429 0.4127377149282536 0.0
0.888038929882072 0.2980195788594682 0.0
0.904442789474687 0.325806236284054 0.0
0.9390700253449398 0.4433323298336895 0.0
0.955161269527256 0.47143995082222384 0.0
1.0000000001273595 0.5298610259786798 0.0
0.9415131956735362 0.49812972406891204 0.0
0.960146595225873 0.5302441791739898 0.0
1.0000000001254057 0.5912205526778641 0.0
0.8531007467082329 0.2976174635229329 0.0
0.836990390184997 0.2712849811079186 0.0
0.7861992900626232 0.24576510991817424 0.0
0.8015381281627454 0.27066190632805726 0.0
0.734381453991585 0.21655524931033862 0.0
0.7493923143914127 0.24513023323162356 0.0
0.6968830454354077 0.21526953724745676 0.0
0.684690065089957 0.19262893797458408 0.0
0.4303758265445653 -4.3674855398911916e-12 0.0
0.3700677339321705 -4.3674890093381435e-12 0.0
0.521645682154087 0.05994512008373694 0.0
0.4915526445617316 0.040922023567986285 0.0
0.46047056115679424 0.059618288720501816 0.0
0.4307274252057963 0.04246182381750689 0.0
0.6147728789412794 0.14305376314589544 0.0
0.6434975694408129 0.18826848589497805 0.0
0.6348643048264098 0.15423276472064815 0.0
0.5528083148656828 0.10959680343349434 0.0
0.5219454974220221 0.08900779876173465 0.0
0.5854579527169147 0.1562301405244201 0.0
0.5530525353113108 0.1317444334840468 0.0
0.887811435579734 0.35658306273589513 0.0
0.9040674494820462 0.38438857463787374 0.0
0.9053588140053574 0.44233013607309146 0.0
0.8885667156036086 0.4138183123187056 0.0
0.8362239633040653 0.3296821339021016 0.0
0.8521342583612469 0.35629913703257465 0.0
0.9018468805503693 0.5023906673030245 0.0
0.8858609209445942 0.47508900180247016 0.0
0.9409483779721959 0.5589654739630904 0.0
0.9622432728215151 0.5911033922888816 0.0
0.893076404275685 0.5246616622229339 0.0
0.9180620379667559 0.5597533178573725 0.0
0.9412352977294222 0.6224932051017008 0.0
0.9562007077209961 0.6503191079377096 0.0
1.000000000142803 0.6529046100726255 0.0
1.0000000001320555 0.7072077579304816 0.0
0.3091553383628378 -4.367600031640606e-12 0.0
0.24858467182222857 -4.367603501087558e-12 0.0
0.8008512124517144 0.3290958409594301 0.0
0.7847942788417883 0.3036754590467823 0.0
0.7497328747816808 0.30343570221896493 0.0
0.733319829089695 0.2736448126700856 0.0
0.6969222718255407 0.27377561622346025 0.0
0.6814986829154485 0.24452961467626363 0.0
0.6279296232454562 0.2093232872754145 0.0
0.6428735747777566 0.2447836756244067 0.0
0.40072754068275085 0.06064441589292051 0.0
0.36992252411590437 0.0423296587918639 0.0
0.34019778181741295 0.06013844589638553 0.0
0.3093010827028477 0.042414738174536976 0.0
0.48962944853099927 0.10911199813487063 0.0
0.4614996439452096 0.0942003537205905 0.0
0.40062277221261045 0.09237893365325095 0.0
0.4322359090427914 0.11164337948329167 0.0
0.5910927793677601 0.20847800282681866 0.0
0.5779571311824405 0.18878454310068932 0.0
0.4933293605882958 0.14539112845636187 0.0
0.5295632028983561 0.19191554480761885 0.0
0.5202687862965849 0.15681837730965378 0.0
0.855046134806974 0.4724057073994571 0.0
0.835860399495233 0.38749106017883334 0.0
0.8514495540483503 0.41502616599426995 0.0
0.8390204618993375 0.43984468457859777 0.0
0.7992542546288411 0.3867317899110201 0.0
0.7834646060317796 0.36377642016657774 0.0
0.8321220367265305 0.5006294736347978 0.0
0.8354017607314251 0.5227851440891583 0.0
0.8590459119534812 0.5365678936351345 0.0
0.908858070007989 0.6188890185534378 0.0
0.8968716363762519 0.5872817040442228 0.0
0.8604438192146951 0.5808042666557265 0.0
0.8897393681965585 0.6416996093240142 0.0
0.8996591483587882 0.6770080330197421 0.0
0.9360943011088734 0.6831732496986778 0.0
0.9487401816385048 0.7091931602796671 0.0
0.9392330589277049 0.7313859104569116 0.0
0.9611630110261946 0.7662420022238261 0.0
1.0000000001320557 0.7664885048537494 0.0
1.0000000001339975 0.8243584150237132 0.0
0.27994319571086507 0.06057243065733495 0.0
0.24816591316078765 0.042512771484029474 0.0
0.22054367535824598 0.059533244236696536 0.0
0.18725512249119355 0.041304399087286114 0.0
0.18593636588781376 -4.598824793200507e-12 0.0
0.12715784742425149 -4.0947106816346945e-12 0.0
0.7329602274920206 0.33195583019524766 0.0
0.750607993555438 0.3633656416371691 0.0
0.6816165976000785 0.3005921130734477 0.0
0.6979553982560097 0.33235107137944664 0.0
0.6282961530107037 0.26799226174812263 0.0
0.6442763975810971 0.301299057784171 0.0
0.575704058413565 0.24278000374115435 0.0
0.5917830389297304 0.2686305832003679 0.0
0.3402877099725297 0.09451016925000155 0.0
0.37029820880779135 0.11114517776740308 0.0
0.2801240865961495 0.09357799856925196 0.0
0.31198397679465023 0.11117463154404827 0.0
0.46360131026796575 0.16504918590583004 0.0
0.4309920953885656 0.1427671122896155 0.0
0.40044675572124916 0.16014113274409286 0.0
0.3717785888900639 0.144832460584629 0.0
0.5202758114739595 0.20792256186917227 0.0
0.5388315992386357 0.243707382168901 0.0
0.48726394695582836 0.213004970638514 0.0
0.46239426359228897 0.18744149423124784 0.0
0.782139261256042 0.4268713213111769 0.0
0.7901437357430316 0.48112419063286116 0.0
0.7960896210088031 0.4439181189326299 0.0
0.7511387550748055 0.42593445166497507 0.0
0.7322667413127458 0.39161283963169463 0.0
0.8039744300895237 0.5465321643152895 0.0
0.7698090218238445 0.49437395702941195 0.0
0.7744395294819872 0.5355219010723535 0.0
0.8106231266348681 0.5833958362226025 0.0
0.8465699588450529 0.5917018170366322 0.0
0.8501801606451823 0.6352788760750325 0.0
0.8363809954767263 0.6477107438550559 0.0
0.8783435169087905 0.699371256658424 0.0
0.8393452896256622 0.6862182462401667 0.0
0.8830493556409152 0.731640462041234 0.0
0.9010709135674644 0.7426240110595279 0.0
0.9039366890520001 0.7880013199104041 0.0
0.9390812812341961 0.7969480652957069 0.0
0.9505408919814043 0.8256730149092233 0.0
0.9414439012407082 0.8424431337567317 0.0
0.9608634235771455 0.8835094199637915 0.0
1.0000000001466112 0.8860469675286646 0.0
1.0000000001466112 0.9411624874377527 0.0
1.0000000001238152 1.00000000014355 0.0
0.2520795693335072 0.11149826606664523 0.0
0.21950287214310432 0.09561358217561669 0.0
0.19838640150015588 0.10837200281809158 0.0
0.15713641664848105 0.06296864977142916 0.0
0.16120830587535945 0.09309671345413784 0.0
0.12477651182465578 0.04732627862604582 0.0
0.10545259264421805 0.05787685596578811 0.0
0.063374963661078 0.03610704681083922 0.0
0.061350135194307015 -4.0947106816346945e-12 0.0
-4.975311829191753e-12 -4.7171780370725e-12 0.0
0.698901269048801 0.39162874323231395 0.0
0.6825030506205964 0.35753849693955303 0.0
0.629745138331543 0.32562233630513837 0.0
0.6451395294525941 0.3582072732029291 0.0
0.576487900154411 0.2994557309238481 0.0
0.5916838520777414 0.32612420129064884 0.0
0.5232252109469284 0.2707844654775984 0.0
0.5381941986320979 0.2995004288419168 0.0
0.3112456326998271 0.14646821389915404 0.0
0.34085706197265997 0.1644696511232034 0.0
0.2537096722506519 0.1463903631097059 0.0
0.2817806169876885 0.16180313346384925 0.0
0.40218543857520295 0.20121202096448262 0.0
0.4208694109824408 0.2108435479155463 0.0
0.37429539081634255 0.21331523850596446 0.0
0.34156551035897464 0.19125543721006008 0.0
0.48494429830065067 0.26976337700565417 0.0
0.4311979324659208 0.2458213487038324 0.0
0.4728416568983472 0.24922157320897914 0.0
0.7407709291344149 0.48498783207932933 0.0
0.7293225239564058 0.45434469599166055 0.0
0.6826716961744145 0.4153153223629687 0.0
0.6957619424631433 0.44837115335541344 0.0
0.7103988115598597 0.5146270483088734 0.0
0.7486112917556342 0.554310610592171 0.0
0.7551333396484652 0.5915359075544774 0.0
0.7905229998906272 0.6011531625084703 0.0
0.7201268732789727 0.5444594096233067 0.0
0.7957718221120662 0.6388454205295475 0.0
0.7787907059367185 0.6549451230188362 0.0
0.8171062435120374 0.7043867129547378 0.0
0.7824357612955353 0.6904006344217154 0.0
0.8465204860862511 0.7525047547192248 0.0
0.819615234234529 0.7370883238191074 0.0
0.8827465649158235 0.8030215819285931 0.0
0.8487800558996799 0.786564721060764 0.0
0.8826535862114414 0.8365902258008454 0.0
0.9032278492482921 0.8526055696660204 0.0
0.9368602178367403 0.9087540064822546 0.0
0.9002731337959204 0.8914908901031257 0.0
0.9407619263103332 0.9384433611426227 0.0
0.9493165583209204 0.945254403575167 0.0
0.9509512506114991 1.0000000001359766 0.0
0.21990022804156809 0.1667016765167976 0.0
0.19483578285662967 0.14951820962416523 0.0
0.16190792727175385 0.15993339526849956 0.0
0.1345595853481927 0.1191618962603789 0.0
0.11610092876886052 0.11894990481494187 0.0
0.0959709356024959 0.09432056230490413 0.0
0.05703226035759347 0.09907408780631839 0.0
0.03966722394040005 0.06078747215625324 0.0
-4.093243105574018e-12 0.05748081696722842 0.0
0.6310520842487402 0.38166344032878746 0.0
0.6450775296781611 0.41393228729917864 0.0
0.5770005187486715 0.35572294973524643 0.0
0.5922830296627315 0.38196754192504023 0.0
0.5233215858895268 0.32750550999507605 0.0
0.5396336191524339 0.3565469708230697 0.0
0.2210807926117206 0.192979957597047 0.0
0.48600683047912835 0.3285253202405938 0.0
0.47007927545363776 0.30163494949488173 0.0
0.28127907498355514 0.20489516175971295 0.0
0.3090782915421804 0.21531756542898364 0.0
0.26429502519099796 0.21415393624557513 0.0
0.4151414527881604 0.268714405244921 0.0
0.37832961939612525 0.2682030306370706 0.0
0.3657557238585113 0.25050273284869884 0.0
0.3200222231335609 0.25116848333210684 0.0
0.4313854506768455 0.30266846481514587 0.0
0.6812044283302306 0.5049096275280067 0.0
0.6714940552552323 0.47618547712345227 0.0
0.6425139626067474 0.46828641934913184 0.0
0.6300366279922106 0.4368923549772931 0.0
0.6536667601122996 0.5328045895975422 0.0
0.6595667558657095 0.5620149338911663 0.0
0.6899427164339407 0.5735573070652277 0.0
0.7380301985349623 0.6449807770730939 0.0
0.6978366460219247 0.5995137303138693 0.0
0.7331594090015107 0.6114050767758085 0.0
0.7222650293264384 0.6613356539489049 0.0
0.7567480951168972 0.7100068137559142 0.0
0.725771504464862 0.6955486756593313 0.0
0.7877148641169949 0.7573761181974593 0.0
0.7591137537402042 0.7410191888861395 0.0
0.7894282454985437 0.7887794531662737 0.0
0.819788827983452 0.8060538632189826 0.0
0.845514616020778 0.8536666548719223 0.0
0.8210092930429614 0.8372127584631115 0.0
0.8458859026265471 0.888609769951877 0.0
0.8758928406849137 0.9058504383145717 0.0
0.8750660103224938 0.9396646149618776 0.0
0.8967866243746798 0.9555838035510867 0.0
0.8973786730039229 1.0000000001359766 0.0
0.1978756313371192 0.2161867657779885 0.0
0.1685837659551009 0.21323345002069458 0.0
0.15163172391149016 0.18123423907914082 0.0
0.09402395651906362 0.15431258955246185 0.0
0.11223417968439943 0.18488117451015187 0.0
0.06119250565691112 0.1535443047884659 0.0
0.044057263935845685 0.12082183101075933 0.0
-4.09324657502097e-12 0.1224293145249401 0.0
0.5775562870904749 0.41327233119086904 0.0
0.5929411722989805 0.436153988334231 0.0
0.5248188091167333 0.3848938045270471 0.0
0.5429838369011445 0.41465604010534446 0.0
0.489645828733098 0.3869703311871346 0.0
0.4714661865158841 0.3580508649454123 0.0
0.2540927149779415 0.2515617302981581 0.0
0.21425814255177028 0.2565164558189762 0.0
0.4356938365732202 0.36047517199064794 0.0
0.41673152567477834 0.3283809320472688 0.0
0.27282718351581553 0.2745607870735671 0.0
0.3067759753028045 0.27220874229945163 0.0
0.32583274532694106 0.3069451481859894 0.0
0.38195347356213555 0.3307794127907007 0.0
0.3635097986832195 0.30421202339147907 0.0
0.6135910491991988 0.5164569297066545 0.0
0.57793882498012 0.4726227186389631 0.0
0.6120225475916078 0.4984946973874417 0.0
0.5944786641416367 0.5369738641387249 0.0
0.6049280745509182 0.5780398657621646 0.0
0.6317456728247695 0.5853071442752351 0.0
0.6695899095849442 0.6329989018319939 0.0
0.6426313593125046 0.6246983323390983 0.0
0.6784548622397405 0.6525533693977451 0.0
0.6626155128781939 0.6892840363286262 0.0
0.6976167457755128 0.7150169272681302 0.0
0.6957797566880719 0.7400625959368707 0.0
0.7277214618107833 0.7615891689627398 0.0
0.7275285849783193 0.7892406621040704 0.0
0.7583965777401467 0.8088318826539003 0.0
0.7588021787831176 0.8382701420803592 0.0
0.7865569362059527 0.8563552705601755 0.0
0.8152736277258517 0.9058255473783702 0.0
0.7870883201252218 0.8885899865855311 0.0
0.8154867783637765 0.9394993486263721 0.0
0.8406233007541379 0.9557205604399485 0.0
0.8406144811600831 1.0000000001323017 0.0
0.20290599509084278 0.2746987934340804 0.0
0.1473100440331117 0.24322037874334496 0.0
0.16500430835724883 0.2769883599179109 0.0
0.09808670145180745 0.21234584402783171 0.0
0.11455782360644537 0.24194099385319948 0.0
0.060599080485272634 0.21338341005047562 0.0
0.043483388715534824 0.18180729209756905 0.0
-4.462211850020381e-12 0.18161362213485957 0.0
0.5536708678656176 0.47908671409394704 0.0
0.5279221608395641 0.4424250169702665 0.0
0.47503035200874233 0.4161981627721706 0.0
0.4963432104931045 0.4469351810575097 0.0
0.44210170019049544 0.4197763538050681 0.0
0.4210012079512128 0.3883887023189914 0.0
0.25688876532683486 0.3108510672782898 0.0
0.21967943357557884 0.312230284597924 0.0
0.3881361373407342 0.39183040608812136 0.0
0.36725719477407603 0.3619808494520408 0.0
0.2756301118759411 0.3375005005567496 0.0
0.31199282230911496 0.33358179306190955 0.0
0.33255481129416664 0.36573775914748374 0.0
0.5573535366461978 0.5341081228007525 0.0
0.5434018365303211 0.4982795649907197 0.0
0.5423226397714875 0.554435808119874 0.0
0.5777742981322904 0.5988895442884807 0.0
0.5529824876273844 0.5900483750407054 0.0
0.6125449027915325 0.6466681158482368 0.0
0.58446911221249 0.634161913492925 0.0
0.6171781207822751 0.6818426871254397 0.0
0.6415839360207468 0.6962072323876758 0.0
0.636233725905002 0.7389292302026857 0.0
0.6674101379018926 0.7572947866930781 0.0
0.666258685283992 0.7894265044429937 0.0
0.6973085494150195 0.8083285224447216 0.0
0.7266131762803115 0.857387313254586 0.0
0.6972417613413715 0.8390464506899865 0.0
0.755538775344647 0.9066529182750548 0.0
0.7269163408501317 0.889080086186415 0.0
0.7558456851261135 0.9397247641778139 0.0
0.7829333330820832 0.9564439833818779 0.0
0.7831090971078095 1.0000000001323017 0.0
0.20350318792976937 0.3369549257519125 0.0
0.20936795706148173 0.3575481029074548 0.0
0.16084629149017493 0.32910352985378755 0.0
0.1494871744877225 0.30307498736017235 0.0
0.11088438562313199 0.3006839189961087 0.0
0.09608324404017665 0.2722713908909633 0.0
0.060734210025430724 0.2706962118755388 0.0
0.04470106369829437 0.24142892402505425 0.0
-4.417362309272477e-12 0.24142739460252793 0.0
0.48292565806470983 0.47515490046514186 0.0
0.5012426677241812 0.5029523287602616 0.0
0.4273355557875761 0.4490754198504633 0.0
0.44900144932068214 0.4787533872929599 0.0
0.397109455915299 0.45279549811950687 0.0
0.3730841875620998 0.4222310090245141 0.0
0.2613139884825137 0.3715324412841048 0.0
0.34553606778327006 0.4264634728748059 0.0
0.2473437456535722 0.3762857638532242 0.0
0.31764028388091536 0.3956653961769113 0.0
0.2963663356715211 0.40023407797880256 0.0
0.48906137416669265 0.5346550594621152 0.0
0.5021911443316669 0.5532843467526194 0.0
0.520943022174028 0.6132961637459268 0.0
0.4911057288562727 0.589858692930947 0.0
0.5527859886186487 0.65660391132295 0.0
0.5207391603851473 0.6355903184536008 0.0
0.5810323501052301 0.7015900306544028 0.0
0.5537707094260672 0.6837772134002115 0.0
0.6092516855177743 0.7513274673866814 0.0
0.5821055853113086 0.7347998848864354 0.0
0.6073017862269909 0.7883081731461395 0.0
0.6373897309870469 0.8062907626047977 0.0
0.6666268584336581 0.857317360635873 0.0
0.6366845302445293 0.8390916497670424 0.0
0.6665657595415552 0.889395037178239 0.0
0.6958684298198224 0.9072163997177737 0.0
0.696018736728983 0.9399199091966938 0.0
0.7244341455111833 0.9571427364881994 0.0
0.7245557311833308 1.0000000001302831 0.0
0.23194202962868535 0.41997618109889046 0.0
0.1818485211804462 0.3924192114939809 0.0
0.2004694735036138 0.4211210585395866 0.0
0.14071062526202144 0.36189314900655906 0.0
0.15720956935425923 0.38957558628183947 0.0
0.0926523619233273 0.33163877383197743 0.0
0.10903826711504973 0.35961265146375354 0.0
0.05970293997272727 0.33051749870510666 0.0
0.04251798845835685 0.30144824715674 0.0
-4.417022303471185e-12 0.3008791331096598 0.0
0.433887791688222 0.5109836723735053 0.0
0.4536723617950366 0.536270492099042 0.0
0.3814138842443093 0.4843010324066309 0.0
0.40352107401740367 0.5138483520817114 0.0
0.35124787312277167 0.48741140725218374 0.0
0.3290663604589383 0.4609228236694284 0.0
0.25056781248724785 0.4407120225323704 0.0
0.3010447493547913 0.4636009032199438 0.0
0.27868803160280026 0.4385606291970533 0.0
0.4638900271589961 0.59839531454095 0.0
0.437195442896389 0.5745216045654288 0.0
0.45604828247771567 0.6333287379269057 0.0
0.4912829699762257 0.6556703394562499 0.0
0.5210587797618289 0.704012673801334 0.0
0.49021660204962053 0.6845312110395458 0.0
0.5213325713239204 0.7350706558999324 0.0
0.5496716165886267 0.752621638803292 0.0
0.57829537996663 0.8035365072848629 0.0
0.5498692280661726 0.7864649882344419 0.0
0.6070082100577193 0.8561543010663858 0.0
0.5774740904589944 0.8384993458697744 0.0
0.6066450730228099 0.8893961357912956 0.0
0.6362257175869149 0.9071422938331215 0.0
0.6361898353669251 0.9400251955167787 0.0
0.6653685407384364 0.9574954380210484 0.0
0.6654150802630051 1.000000000129957 0.0
0.23478596880517594 0.47804043636216526 0.0
0.20243743318002802 0.4796162177732588 0.0
0.1834338930205831 0.45250507320260075 0.0
0.15372047062090624 0.45319104189947557 0.0
0.13363925747110614 0.4231305190883152 0.0
0.0885356269719332 0.39248332112104006 0.0
0.10777904678775185 0.4220418926121338 0.0
0.05941075652028377 0.39174846775790867 0.0
0.04059053749323137 0.3622137890009053 0.0
-4.2817728529431776e-12 0.3619220929837098 0.0
0.4122043311674892 0.5782829524480372 0.0
0.38801288356283437 0.5435898855111565 0.0
0.33570626873639514 0.5225876310227265 0.0
0.3560272753513563 0.5473747081666874 0.0
0.30497334294974604 0.5251069474022823 0.0
0.28442781260769306 0.500362274063926 0.0
0.25397196074004175 0.5023125094488997 0.0
0.39866516425647447 0.5998394263695299 0.0
0.4311114059276947 0.645545639106524 0.0
0.4110559454909448 0.6369841489132554 0.0
0.433333964794903 0.6877735992723666 0.0
0.4607057166909046 0.7022775189038201 0.0
0.4617753781030166 0.7368801202791957 0.0
0.4899910626772778 0.7533078713281991 0.0
0.4907157344206007 0.7870108672346073 0.0
0.5188264226053814 0.8037387944997559 0.0
0.5190873250069837 0.8379359440762192 0.0
0.5476956387968505 0.8549187640548055 0.0
0.576730474897008 0.9065781874760228 0.0
0.5474479807673234 0.889204491958906 0.0
0.5766074680633322 0.9400491107088369 0.0
0.6060404952643874 0.9574969212774919 0.0
0.606031290387636 1.0000000001300215 0.0
0.23809387600757856 0.5367442212409934 0.0
0.18619698358356668 0.5127670531548464 0.0
0.2048376690769625 0.5384973603210678 0.0
0.1548486229213976 0.5139687954642683 0.0
0.13481801769524013 0.4851748579796549 0.0
0.08583858056683533 0.45495695540203995 0.0
0.10661274822570942 0.48564528145776087 0.0
0.059298586567594555 0.4546149690738157 0.0
0.039054113971090626 0.42413544321909574 0.0
-4.2078007744805745e-12 0.423958668977693 0.0
0.3424072267587495 0.5830815283932368 0.0
0.3563961973600611 0.601513697345653 0.0
0.30771781213888 0.5844570858761605 0.0
0.28907510907398354 0.5616625072258418 0.0
0.2575479391483065 0.5635385702864846 0.0
0.37354987236735954 0.6596092340856068 0.0
0.34734780299391727 0.6373997517048752 0.0
0.4020534450400774 0.7045740918638894 0.0
0.3731078916614485 0.6848087462440782 0.0
0.40126779016439734 0.7364129455707675 0.0
0.43063893859890456 0.7548894967918467 0.0
0.45945462625642275 0.8048725985541543 0.0
0.43052000342622493 0.7871105270867698 0.0
0.4595546075874275 0.8379060995210724 0.0
0.48834056262667436 0.8552582543385241 0.0
0.5173635817531328 0.9061970442034462 0.0
0.48837341163282877 0.888924826749906 0.0
0.5172636822594582 0.939974746520689 0.0
0.5466476187265309 0.9573382978643826 0.0
0.5466078702141525 1.0000000001300215 0.0
0.24195994147686134 0.5943518582579649 0.0
0.20780463451545275 0.5973572441666201 0.0
0.18932607224554204 0.5728071114474238 0.0
0.15695737852548206 0.5744454775638779 0.0
0.13704791626344964 0.5470948677090544 0.0
0.10763048419247384 0.5480698649603202 0.0
0.08674644263901873 0.517725085819603 0.0
0.05913204118764012 0.5181170744895478 0.0
0.038207491625551315 0.4868903831643975 0.0
-4.16041159856384e-12 0.486854368516649 0.0
0.3158166041441874 0.6467776393213804 0.0
0.2917460745670405 0.6242443222242958 0.0
0.2641696791198905 0.6276209753564654 0.0
0.3091300685611472 0.6814575590266799 0.0
0.34192184502229117 0.7033743877884518 0.0
0.34029066928697166 0.7343804302200417 0.0
0.3711238722723648 0.7534863426482377 0.0
0.3702437838411489 0.786621090468433 0.0
0.3998856619765075 0.8046865019453182 0.0
0.3996373850491024 0.8378368544612891 0.0
0.42890594010709515 0.8554280285709052 0.0
0.4288869504902534 0.8888922255390533 0.0
0.45793510469850096 0.9062467058178432 0.0
0.457937594665258 0.9398811595146722 0.0
0.4872292119288979 0.9572105629353224 0.0
0.48720086755613107 1.0000000001302998 0.0
0.25015758093266593 0.6503955429332381 0.0
0.19410332452262682 0.6327802018840092 0.0
0.2070781938874945 0.6508618197084647 0.0
0.1579805437789587 0.6334061781808457 0.0
0.1398891459313706 0.6092764724159505 0.0
0.08870411611888404 0.5802684537358287 0.0
0.10919104017284649 0.6101439778891731 0.0
0.05953714869182325 0.5809115894671292 0.0
0.03897457289155036 0.5497870826119602 0.0
-4.205098075305003e-12 0.5499894060389426 0.0
0.2813004220804254 0.6947454625911429 0.0
0.26227857973664864 0.6861911533290773 0.0
0.28434064513410756 0.736951168006646 0.0
0.3114006931217104 0.7508555312282145 0.0
0.3123155043767844 0.787352802154031 0.0
0.34028500431535147 0.8034022592751212 0.0
0.3694610127462341 0.8550725084425602 0.0
0.34049453036459404 0.8381776397689552 0.0
0.36958394503661807 0.8891259753932812 0.0
0.39842720062669773 0.9062622523798717 0.0
0.3985220487475478 0.9399302333636146 0.0
0.42772154778697247 0.9572483889046569 0.0
0.4277525930945702 1.0000000001304974 0.0
0.19746150692176775 0.6870515569612895 0.0
0.22313103054230488 0.7099295338630642 0.0
0.1649740181564323 0.6958300397435053 0.0
0.14143568416880428 0.6719515363562326 0.0
0.11371404432603939 0.6747660333917596 0.0
0.09056675026397275 0.6423185800658496 0.0
0.06093322897680091 0.6438431648543921 0.0
0.04032341077087094 0.6121765679010415 0.0
-4.361899730298546e-12 0.61278299817145 0.0
0.25353797126696553 0.753924357636908 0.0
0.22280047418820087 0.7341707763776699 0.0
0.28103994232483454 0.8045976513096554 0.0
0.25296680902832647 0.7868598992115748 0.0
0.31035392952243573 0.8553145060044862 0.0
0.28086942839559736 0.8378835828372617 0.0
0.31031126963675604 0.8892509754709716 0.0
0.3389058686196481 0.9064812677936804 0.0
0.3389715192041661 0.9399816798930627 0.0
0.3680650352562719 0.9574390808830628 0.0
0.36810315681893 1.0000000001300111 0.0
0.15641626641963813 0.7330880630556307 0.0
0.19489111254801336 0.7524864621801856 0.0
0.14378703894953762 0.7399599284855337 0.0
0.09574553240929337 0.7053197460999058 0.0
0.10743344976746251 0.7301335124383883 0.0
0.0590285479871378 0.7024173226679891 0.0
0.04290725060582956 0.6742625148406602 0.0
-4.219114640990895e-12 0.6736631292054454 0.0
0.19453735406540248 0.7868108203554269 0.0
0.22100127478773735 0.8038756578690011 0.0
0.22074249696039494 0.8375862318507643 0.0
0.2515205252344676 0.8548983204135022 0.0
0.2514638258563612 0.8895507884684982 0.0
0.27929917214973277 0.9064664161995667 0.0
0.2794035273883641 0.9400965009290221 0.0
0.3081607361368308 0.9576131681663455 0.0
0.30821532989345074 1.0000000001300111 0.0
0.1594029560269566 0.8037622027883661 0.0
0.13832749605397812 0.7890236291301527 0.0
0.10684318066565529 0.7959556927499843 0.0
0.0817343723872583 0.7664762177346671 0.0
0.060863718149915216 0.7664239082049864 0.0
0.038963148412795356 0.7361448531600525 0.0
-4.25151580607519e-12 0.736263866552392 0.0
0.16011596203825293 0.8376546577732382 0.0
0.19377891591166319 0.8540366556637241 0.0
0.1939281563245428 0.8906269379643771 0.0
0.2196273210801427 0.906471700348949 0.0
0.22002445301101783 0.940439451798578 0.0
0.2478795988868248 0.9578928676373456 0.0
0.24801134330909735 1.0000000001296228 0.0
0.13721443613133666 0.8542541754436519 0.0
0.09290338712765679 0.8311812744383477 0.0
0.100533894227973 0.8438125223957512 0.0
0.055801910579381414 0.8278423826091794 0.0
0.038117937783833836 0.8004977806445458 0.0
-3.862615088889854e-12 0.7991216621487421 0.0
0.1596086148933927 0.906915626538599 0.0
0.14123130564444386 0.8956042793512291 0.0
0.16171627776374975 0.9423165528959493 0.0
0.18664099490948902 0.9588049659674724 0.0
0.18739157276220078 1.000000000128672 0.0
0.08133312304347631 0.8897364943174351 0.0
0.10320422887353531 0.9095373254107973 0.0
0.05685852331979631 0.8914141592152679 0.0
0.0331107593449486 0.8662897670335137 0.0
-3.931341363561103e-12 0.8664882670933204 0.0
0.10029629714723233 0.9420205818492107 0.0
0.12404878119033781 0.9618545558833037 0.0
0.12384107815026821 1.0000000001248015 0.0
0.037872764797847014 0.9337395008550271 0.0
0.06185441619225015 0.9562635441712115 0.0
-4.8146209241650695e-12 0.9366676276545504 0.0
0.05740255029695041 1.0000000001248015 0.0
-4.814641740846781e-12 1.000000000157043 0.0
CELLS 330 2246
6 125 87 85 86 123 124
5 267 215 213 265 266
6 123 86 83 84 121 122
6 268 267 266 316 318 317
6 514 512 511 542 543 544
6 468 433 432 434 471 470
6 520 518 519 524 548 549
6 68 63 61 62 97 95
6 84 82 81 106 120 121
5 60 59 66 91 92
6 242 221 191 190 241 243
6 417 415 419 457 455 439
5 398 356 357 358 399
5 157 156 117 159 158
6 103 71 72 75 104 105
6 641 639 640 649 651 652
6 176 134 135 180 181 182
6 286 285 289 331 335 336
6 435 396 395 397 437 436
6 466 430 431 433 468 469
6 300 297 250 252 301 302
5 519 492 494 523 524
6 359 329 328 332 373 374
6 651 649 650 654 658 657
5 41 24 23 36 40
6 608 597 596 599 616 615
6 548 524 523 526 552 551
6 465 429 428 430 466 467
6 332 333 334 378 377 373
6 428 389 390 391 431 430
6 498 464 465 467 500 499
6 405 363 360 361 403 404
7 147 141 109 108 112 149 148
5 655 646 647 648 656
6 489 487 488 518 520 521
7 284 282 283 288 333 332 328
6 383 341 342 344 385 386
6 446 444 445 480 482 483
6 554 527 528 530 556 555
6 482 480 481 513 515 516
6 481 479 478 512 514 513
6 299 246 247 249 250 297
5 622 604 605 606 623
6 136 126 127 171 174 173
5 206 205 160 208 207
6 525 495 496 497 528 527
5 437 397 398 399 438
5 27 22 26 37 38
6 280 277 278 324 326 327
7 385 344 343 345 346 388 387
6 362 318 316 315 360 363
6 31 19 16 17 29 32
6 589 587 588 597 608 607
6 522 521 520 549 550 538
6 192 148 149 152 196 195
6 422 384 383 386 424 425
5 14 5 11 12 13
6 331 289 281 280 327 330
6 419 418 416 454 456 457
5 366 365 364 407 408
5 345 300 302 347 346
6 529 499 500 501 532 531
6 185 183 184 227 237 239
6 388 346 347 348 390 389
5 321 320 319 365 366
6 600 581 580 582 603 602
6 23 20 21 33 35 36
6 296 248 245 246 299 298
6 404 403 402 442 445 444
6 609 607 608 615 624 625
6 515 513 514 544 545 546
5 547 546 545 572 573
6 558 531 532 534 560 559
6 174 171 172 223 226 225
6 191 168 146 145 187 190
5 562 535 536 537 563
5 219 166 216 217 218
5 506 472 473 474 507
6 320 270 269 268 317 319
6 593 592 591 610 612 613
6 570 568 567 590 591 592
6 567 565 566 587 589 590
6 403 361 359 374 400 402
6 510 508 522 538 539 540
6 598 578 579 581 600 601
5 118 90 129 130 131
6 214 164 163 212 213 215
5 636 621 622 623 637
6 112 108 78 79 110 113
6 58 55 56 83 86 85
6 278 275 276 322 325 324
7 217 216 214 215 267 268 269
6 232 229 230 236 283 282
6 407 364 362 363 405 406
6 32 29 30 47 51 52
7 61 39 41 40 57 64 62
6 237 227 228 277 280 281
6 161 131 130 175 178 177
6 638 631 632 633 644 645
6 98 67 68 95 100 101
6 259 207 208 209 262 261
6 402 400 401 440 443 442
5 165 119 162 163 164
6 285 238 239 237 281 289
6 612 610 611 627 628 629
6 390 348 349 350 392 391
6 413 411 412 449 452 451
5 111 80 116 115 114
6 583 559 560 561 585 584
5 59 42 44 65 66
6 360 315 314 329 359 361
6 130 129 128 134 176 175
7 316 266 265 264 279 314 315
6 347 302 301 304 349 348
6 250 249 198 200 251 252
6 580 557 558 559 583 582
6 294 290 244 248 296 295
5 119 118 131 161 162
6 533 504 503 505 536 535
6 306 256 255 257 307 308
6 183 139 137 136 173 184
6 453 451 452 486 488 487
5 605 584 585 586 606
6 493 460 461 463 496 495
6 556 530 529 531 558 557
6 335 331 330 372 375 376
6 368 325 322 323 338 367
6 245 194 192 195 247 246
5 234 186 185 239 238
6 528 497 498 499 529 530
6 478 477 476 509 511 512
5 595 594 593 613 614
5 283 236 235 287 288
6 211 177 178 229 232 231
6 293 274 242 243 291 292
5 30 28 45 48 47
5 202 157 158 204 203
6 462 427 426 429 465 464
6 574 551 552 553 577 576
6 57 40 36 35 55 58
5 22 14 13 25 26
6 244 240 193 194 245 248
6 34 31 32 52 53 54
6 650 645 644 646 655 654
5 473 436 437 438 474
6 227 184 173 174 225 228
6 616 599 598 601 618 617
5 640 638 645 650 649
5 149 112 113 151 152
6 632 617 618 619 634 633
5 647 635 636 637 648
6 291 243 241 240 244 290
6 198 197 153 154 199 200
6 410 381 380 382 421 420
5 42 27 38 43 44
6 443 440 441 477 478 479
5 110 79 77 80 111
6 370 368 367 381 410 409
6 169 124 123 122 167 170
5 659 657 658 660 661
6 303 254 253 256 306 305
6 353 308 307 309 354 355
6 445 442 443 479 481 480
5 421 382 384 422 423
6 620 602 603 604 622 621
6 502 469 468 470 503 504
6 523 494 493 495 525 526
6 181 180 179 186 234 233
5 566 564 575 588 587
6 163 162 161 177 211 212
5 484 483 482 516 517
6 196 152 151 150 153 197
6 471 434 435 436 473 472
5 258 206 207 259 260
6 441 439 455 475 476 477
7 199 154 155 156 157 202 201
6 81 73 74 102 107 106
5 536 505 506 507 537
5 585 561 562 563 586
6 618 601 600 602 620 619
6 53 52 51 73 81 82
6 455 457 456 490 491 475
6 365 319 317 318 362 364
6 349 304 303 305 351 350
6 432 394 393 396 435 434
6 395 355 354 356 398 397
6 339 292 291 290 294 337
6 452 449 450 459 485 486
6 135 133 132 138 179 180
5 357 311 312 313 358
6 416 414 413 451 453 454
6 21 18 19 31 34 33
6 354 309 310 311 357 356
6 251 200 199 201 253 254
6 532 501 502 504 533 534
6 171 127 125 124 169 172
6 153 150 114 115 155 154
6 458 423 422 425 461 460
5 272 271 270 320 321
6 51 47 48 69 74 73
6 126 96 88 87 125 127
6 577 553 554 555 579 578
5 17 15 28 30 29
6 634 619 620 621 636 635
6 431 391 392 394 432 433
6 226 223 224 273 276 275
6 371 369 370 409 412 411
7 610 591 590 589 607 609 611
5 643 642 641 652 653
7 492 485 459 458 460 493 494
6 511 509 510 540 541 542
6 56 54 53 82 84 83
6 375 372 371 411 413 414
6 247 195 196 197 198 249
6 393 352 353 355 395 396
6 426 387 388 389 428 429
5 166 165 164 214 216
6 151 113 110 111 114 150
6 379 376 375 414 416 418
6 74 69 70 71 103 102
6 213 212 211 231 264 265
6 579 555 556 557 580 581
6 406 405 404 444 446 447
7 100 95 97 96 126 136 137
5 314 279 284 328 329
5 448 447 446 483 484
7 241 190 187 189 188 193 240
6 488 486 485 492 519 518
6 223 172 169 170 222 224
6 330 327 326 369 371 372
5 323 293 292 339 338
5 614 613 612 629 630
5 312 261 262 263 313
6 301 252 251 254 303 304
6 120 106 107 142 145 146
6 307 257 258 260 310 309
6 128 94 93 133 135 134
6 65 44 43 63 68 67
6 91 66 65 67 98 99
7 179 138 140 139 183 185 186
6 333 288 287 286 336 334
6 264 231 232 282 284 279
5 89 60 92 93 94
6 491 490 489 521 522 508
7 12 11 10 9 18 21 20
5 2 1 6 7 8
6 571 569 570 592 593 594
6 500 467 466 469 502 501
5 658 654 655 656 660
6 104 75 76 78 108 109
4 262 209 210 263
6 545 544 543 569 571 572
5 72 49 50 76 75
5 408 407 406 447 448
6 222 170 167 168 191 221
6 145 142 143 144 189 187
6 93 92 91 99 132 133
6 310 260 259 261 312 311
5 10 3 2 8 9
6 276 273 274 293 323 322
6 624 615 616 617 632 631
7 400 374 373 377 415 417 401
6 541 540 539 565 567 568
5 630 629 628 642 643
7 626 625 624 631 638 640 639
6 503 470 471 472 506 505
5 7 6 15 17 16
6 230 182 181 233 235 236
6 560 534 533 535 562 561
5 78 76 50 77 79
5 70 46 49 72 71
6 340 337 294 295 342 341
5 158 159 160 205 204
6 193 188 147 148 192 194
6 178 175 176 182 230 229
6 273 224 222 221 242 274
6 377 378 379 418 419 415
6 603 582 583 584 605 604
6 342 295 296 298 343 344
6 424 386 385 387 426 427
6 552 526 525 527 554 553
6 228 225 226 275 278 277
5 189 144 141 147 188
7 381 367 338 339 337 340 380
5 140 101 100 137 139
6 382 380 340 341 383 384
6 461 425 424 427 462 463
5 517 516 515 546 547
6 351 305 306 308 353 352
5 115 116 117 156 155
7 235 233 234 238 285 286 287
5 48 45 46 70 69
6 378 334 336 335 376 379
6 253 201 202 203 255 256
6 496 463 462 464 498 497
6 326 324 325 368 370 369
6 588 575 574 576 596 597
6 644 633 634 635 647 646
6 596 576 577 578 598 599
6 343 298 299 297 300 345
6 25 13 12 20 23 24
6 167 122 121 120 146 168
5 573 572 571 594 595
6 107 102 103 105 143 142
5 4 0 1 2 3
6 35 33 34 54 56 55
6 628 627 626 639 641 642
5 90 89 94 128 129
6 392 350 351 352 393 394
6 43 38 37 39 61 63
6 539 538 550 564 566 565
6 456 454 453 487 489 490
6 64 57 58 85 87 88
6 412 409 410 420 450 449
5 97 62 64 88 96
7 564 550 549 548 551 574 575
6 543 542 541 568 570 569
5 5 4 3 10 11
6 37 26 25 24 41 39
6 18 9 8 7 16 19
5 220 219 218 271 272
5 440 401 417 439 441
5 611 609 625 626 627
6 450 420 421 423 458 459
6 476 475 491 508 510 509
7 255 203 204 205 206 258 257
5 271 218 217 269 270
5 653 652 651 657 659
6 132 99 98 101 140 138
6 144 143 105 104 109 141
CELL_TYPES 330
5
5
5
5
5
5
5
5
5
5
5
5
5
5
5
5
5
5
5
5
5
5
5
5
5
5
5
5
5
5
5
5
5
5
5
5
5
5
5
5
5
5
5
5
5
5
5
5
5
5
5
5
5
5
5
5
5
5
5
5
5
5
5
5
5
5
5
5
5
5
5
5
5
5
5
5
5
5
5
5
5
5
5
5
5
5
5
5
5
5
5
5
5
5
5
5
5
5
5
5
5
5
5
5
5
5
5
5
5
5
5
5
5
5
5
5
5
5
5
5
5
5
5
5
5
5
5
5
5
5
5
5
5
5
5
5
5
5
5
5
5
5
5
5
5
5
5
5
5
5
5
5
5
5
5
5
5
5
5
5
5
5
5
5
5
5
5
5
5
5
5
5
5
5
5
5
5
5
5
5
5
5
5
5
5
5
5
5
5
5
5
5
5
5
5
5
5
5
5
5
5
5
5
5
5
5
5
5
5
5
5
5
5
5
5
5
5
5
5
5
5
5
5
5
5
5
5
5
5
5
5
5
5
5
5
5
5
5
5
5
5
5
5
5
5
5
5
5
5
5
5
5
5
5
5
5
5
5
5
5
5
5
5
5
5
5
5
5
5
5
5
5
5
5
5
5
5
5
5
5
5
5
5
5
5
5
5
5
5
5
5
5
5
5
5
5
5
5
5
5
5
5
5
5
5
5
5
5
5
5
5
5
5
5
5
5
5
5
5
5
5
5
5
5
5
5
5
5
5
5
POINT_DATA 662
SCALARS values float 1
LOOKUP_TABLE default
-0.0002619391154500219
-0.0002656130896489962
-0.0002594489627259401
-0.0002616073245241957
-0.0002655227233114297
-0.00026255907865423194
-0.00026249467711474177
-0.0002467631752248799
-0.00024121955540390772
-0.00020937168121587621
-0.00023569182135164471
-0.00024378337722051008
-0.00020516265534154467
-0.0002360852676032598
-0.0002639310870397601
-0.0002628203912649453
-0.00021086575210970833
-0.00022792511005538223
-0.00015728984028464717
-0.00014228788179838418
-0.00012910209731718678
-0.00010474965271994139
-0.00026027409413147015
-4.624109672108228e-05
-0.00011432607180821744
-0.00016547958607210646
-0.00022173586053601062
-0.00025913550043008037
-0.0002618904950722031
-0.00017561399750379235
-0.00020858710876396947
-4.948563222557484e-05
-6.271305806301862e-05
5.107010517318881e-05
6.776308084213407e-05
0.00016404998638511266
0.00011673894430807444
-0.0001347684654030907
-0.00019421779804837025
2.140708135563906e-05
0.00022995987102178731
5.907520776557179e-05
-0.0002599704019220616
-9.758875516899318e-05
-0.00018874044472524273
-0.00026154353327752006
-0.00026134058465444583
-0.00013933386496116227
-0.00018976296569628683
-0.0002619278445887118
-0.0002606785090949073
1.9793221983038063e-05
6.320723552815124e-05
0.00024856166003798554
0.0002563426393055821
0.0003945342310361108
0.00043962985295122585
0.00039563527553729375
0.0005620113292319639
-0.00025954049541826023
-0.00026000214530906427
0.00020261729304787057
0.0003558354223369422
6.692940587035e-05
0.0005130116777333214
-7.979673169314792e-05
-0.00017445225811311182
0.0001176870969216529
0.00023752046041729982
-0.00010724276810530745
-0.00017380201975370982
-8.380392167786646e-05
-0.00016365937664739868
0.0001693188305626313
9.682201402591594e-05
-6.383056743499843e-05
-0.00015498406443692058
-0.0002607353359947676
-7.188512649735679e-05
-0.00017474489820802706
-0.00026124415440048496
0.0004226145677189025
0.00046391782997202963
0.0007067353648433692
0.0007220367728307906
0.0008317412091156731
0.0009434441775063307
0.0010087575282963857
0.0008628465062639287
-0.00026021353239213946
-0.0002605746170515174
-6.482510601319145e-05
-0.00016914329360955558
-6.771326711719099e-05
-0.0001666268131099345
0.0005772765470880036
0.0009646763282820438
0.0006499242018637039
0.0003178610191844074
0.0001471662879117985
0.000759337230391281
0.0005378808574623997
0.0002585031316374668
0.00015716307821601883
0.00018308452758513327
0.00031313633925198744
0.0006516780369982085
0.0005708461600832042
0.00022094199694088512
0.0003705909601351876
-7.623004046433468e-05
-0.00018722728902600036
0.00030335839983286944
8.217025731703225e-05
-9.472639987823982e-05
-0.00017594996357808584
-0.0002651297686103721
-0.0002628504687179434
-0.0002607316434604537
-0.0002606230242699541
0.0009754065846966152
0.0010104119072113177
0.001307912490419166
0.0012456659940122514
0.001498299139714893
0.0013420566577862433
0.0012316705426266197
0.00153546262746842
-7.535960175776185e-05
-0.000176054961266849
-0.00010101452891466327
-0.0001895900270928561
0.0003272284119873354
0.00018539357447864898
0.00014272232111462935
0.0003286059296459117
0.001326615544994097
0.0011308694208809122
0.0007000791173113856
0.0012280283266432337
0.0008246381202034177
0.0006902023018552341
0.0007953414410366165
0.0006778217153850591
0.0008424924399666023
0.001182734590265943
0.0012758881276909377
0.000953869593332431
0.0009111235736974918
0.0006427391629536524
0.00011708283337707459
0.00024039864037256046
0.0005898717697588127
0.00024387259882164528
0.00012350635338732584
-9.855823766485099e-05
-0.0001737158550464519
-0.0001385040187629611
-0.0002200798366242777
-0.00026576689621579143
-0.0002640721321388804
-0.00013051453659007568
-0.00020728843698686
-0.00016910070348105576
-0.00022731196958394444
-0.0002630824027928726
-0.000261676026436742
0.0016174809925751097
0.0016100079858488185
0.0018145199054875332
0.001922089058666849
0.0018332780550373415
0.0020606024811042015
0.0017497139715188874
0.001985863786657985
0.00010551974345825212
0.00026741009000070165
2.9655257143011023e-05
0.00018708688865075378
0.0009093573930434229
0.0006374266589161884
0.0007790954357108164
0.0005738466718935557
0.0014269906708256593
0.0018294847937165106
0.0014874581053663772
0.0011704810425576346
0.0014725778279378514
0.001445865748301831
0.0013392431837511323
0.0018240276951299048
0.001914493798541242
0.001258533064150035
0.0016974894961513038
0.0016208671774458482
0.0011255301570917556
0.0007203445010843163
0.0006058353147732876
0.0007093607291864822
0.00023735204370479057
0.0005779723255720247
0.0001464168290935361
2.3279024928301944e-05
-5.454931580850262e-05
-0.00018040837580730922
-0.0002262421230934638
-0.00021212942250057606
-0.0002525107145517847
-0.00026932419298710675
-0.0002662657010806642
-0.0002654494895881471
8.621804706473521e-05
-4.534581767688184e-05
-2.5541142545667407e-05
-0.0002026674467071112
-0.00013138012102570495
-0.00024317697595831707
-0.0002361569497413728
-0.0002604080926993937
-0.0002650522960442696
-0.00026137996513100756
0.002247271547139298
0.002209000339607982
0.0023534755217751325
0.002501698324715513
0.002354602488350729
0.002550270882042741
0.0021587909767233483
0.002450501565541785
0.0004545878354180655
0.0006890926887316332
0.00029764570205910175
0.0004913415695997408
0.001228657833053478
0.001379983420952365
0.0012787241996552368
0.000946555485896101
0.0021549642024241544
0.0017999133227425688
0.0019072132197125885
0.0020345589017320186
0.0021286894320616426
0.002498160521438121
0.002471656868993232
0.002372177325840821
0.001894348609784856
0.0017281105551436534
0.0013099679415230557
0.0022313567879938823
0.0011392462326633747
0.0012492928530052716
0.0007019496782589843
0.0010574930355621026
0.0003196033757456464
0.000555967204877872
-5.610785495551382e-07
0.0001984918706418249
-6.488661365972796e-05
-0.00014651768196980952
-0.00024413265845460604
-0.00019057006230815084
-0.00025761925804322763
-0.000263652611820961
-0.0002670441339386556
0.00030448758652116387
0.00013448835673515904
6.882587370056587e-05
-0.00011596056814994588
-0.00014783693788414205
-0.00020953444730932046
-0.00023946223866293668
-0.0002594776837647288
-0.0002650529214900202
0.002749227022050161
0.002814086011920436
0.002859058528588268
0.002978007945169717
0.0027491893518869636
0.0029778705606207326
0.000455457209497928
0.002767866669563869
0.0024843900850261237
0.0008197848207161625
0.0010366809019704735
0.0008066461775643104
0.00201050922010975
0.001868678066598297
0.0016308930954541318
0.001409962232506022
0.0024119014290549046
0.0026791366014850704
0.002758180759669912
0.0029959338365465687
0.0030150590591236748
0.0029023171200453827
0.002786854207909279
0.0024694880173195067
0.0016915673268768857
0.002293251221555701
0.0018926463765425935
0.0017497216115057164
0.0011698077857423713
0.0015071730606685833
0.0006782942146014464
0.0009652662959510594
0.0005009247811280752
0.0002667732938264844
-4.0148344734146934e-07
0.0001355182841921441
-9.993029069172948e-05
-0.0001828716034858436
-0.00022814046248938768
-0.00025162859458730463
-0.0002679416155766681
0.00046041147199450417
0.00028892134895280505
9.903368126866176e-05
-0.00013828209149816545
-3.646971099316224e-05
-0.00020701127191001157
-0.00024568293391233055
-0.00026179489813766746
0.0032288115909804467
0.0032477432021930258
0.0032146901457613566
0.00335576100410065
0.0032433380777201334
0.0030105758832034844
0.001009415788398149
0.00076702036149402
0.002942446943250948
0.0026064148987623324
0.001298762812663924
0.0015109736130566366
0.0019171558812966444
0.002463983869860571
0.0021309844418465327
0.003243418938450521
0.003421470196661161
0.0032537427645085064
0.0033216704363025606
0.0031276764948705293
0.0029185244678984284
0.002378175928600092
0.0026307826512714802
0.002176224904475087
0.002022861491594601
0.0015789142570114447
0.0013899474139025857
0.0010276240335762798
0.0008205462815977424
0.0005365224400813257
0.0003497195823073922
0.00016053354413410887
-0.00010214234410129109
8.965553142829636e-06
-0.00019330001211401924
-0.00023549414557871162
-0.0002664093323015901
0.0007735675737584145
0.000271764957898786
0.0004983384829012025
-4.5176963942446964e-05
8.277574125638401e-05
-0.00017091168078770246
-0.00022594011158244846
-0.00026235856614556784
0.003539868750091641
0.0035047853307605993
0.003400072202250643
0.0035472914508650455
0.003337502924232533
0.003083835582934304
0.0014078217676498153
0.0010909313738938135
0.0029333013321894493
0.0026123419486863875
0.0017298655237970668
0.0020117671926867136
0.0023832098612101035
0.0034979340089521423
0.003579914037856226
0.0034834199017036447
0.0031638120726763075
0.003298790807506113
0.0026731842681839684
0.0029034614511387886
0.002359759037552922
0.0021004327436228752
0.0017249453359115745
0.0013977190674159905
0.0010991968711677564
0.0008035298725873387
0.0003244963711375051
0.0005466297186631704
-2.173024874171147e-05
0.00011730743227793241
-0.00015665406740263357
-0.00021739143523563512
-0.00026564054323365276
0.0010467802727963241
0.0011801394107059226
0.0006243492842631627
0.00045698005834678466
0.00016704249632852776
3.301696148483028e-05
-0.00013570476269040703
-0.0002045164631848924
-0.0002615897223679448
0.0036082468774234692
0.0036304648816571873
0.0033966223648700332
0.0035376842960636876
0.0032471987801925674
0.0029878859724104486
0.0017684393666684143
0.0027880870611924195
0.0016429149759797628
0.002421565809190829
0.002236540701194531
0.003596422473671671
0.003542277342561518
0.0032297080317753445
0.003378379150172814
0.002836591853819179
0.0030707514341285266
0.0023288289553863445
0.0025867295591589325
0.0017115146314824702
0.001979111904664159
0.0013167481705911312
0.001037253022021543
0.00047385591327412486
0.0007094381942268172
0.00021247120926711621
5.2026850193363464e-05
-0.00012247980392395127
-0.00020026860158559184
-0.00026452635438664504
0.0016162658299244245
0.0009952362379642443
0.0012603645627328607
0.0005162975519675464
0.0007286184385876591
8.386372675857833e-05
0.00023722357415253566
-0.00010811077166358281
-0.00019175549049124234
-0.0002615799948198806
0.003498209218568302
0.0035241421759718097
0.0032024005807818425
0.003344724755533753
0.0029707562760836834
0.002741857321670706
0.001876468413743002
0.002469651562901684
0.0021831267697024767
0.0033020834647656257
0.0033497509079754477
0.003049412720381555
0.002913194433120136
0.002434752631769404
0.0026434803513961927
0.002093514553892021
0.0018564049953411514
0.0012159676472398725
0.001460572683994989
0.0005979777151997955
0.000825883380204435
0.00028586521211808693
0.0001151837289300963
-9.427863093529169e-05
-0.00018506218598092917
-0.00026343140193370264
0.0017433145030302487
0.0013579575087636177
0.0011129848323942646
0.000775213756932849
0.0005366435598490012
0.00010765701950398472
0.00028657959498053936
-8.533127143924193e-05
-0.00018439159843270089
-0.0002606922180514144
0.0032274363170871406
0.0031984650077862037
0.0028271181012886177
0.0029561593593370847
0.0025250925456800767
0.00232179929165505
0.0019769596461537385
0.0030389152335244104
0.002885615254135383
0.0028633386918605133
0.002510260912824202
0.0024310115391753735
0.0020540189758211803
0.0018896021408517547
0.0014880370144506778
0.001284827432400651
0.0008834535830437743
0.0006789216681415646
0.00016270645340407485
0.00033093163280740833
-7.465235816807727e-05
-0.00017271208401987604
-0.00026254731918690924
0.0017686077259475783
0.0011691132754378182
0.0013729901988467016
0.00080477268961504
0.0005863352322669689
0.00011682948249720475
0.0003031139223616748
-7.122166383248987e-05
-0.0001809257041687145
-0.00025995648798062053
0.002728688279898982
0.002752573740237752
0.002407751197165875
0.002293505403023562
0.0019460501648648212
0.0024907037006867004
0.0024739417952038467
0.0022367280014516286
0.00228145855031469
0.0019077531037700948
0.0017920342999791993
0.0012561061891952399
0.0014215600946789935
0.0008725063856769122
0.0006921228066650915
0.00018600718559796944
0.00034402757781258365
-6.503964755593034e-05
-0.00016461253644465282
-0.0002619423906844562
0.0016895590338092295
0.0013027112790364099
0.0011465086515852795
0.0007825285721883223
0.0005961254179973654
0.0003031250479309541
0.00012931768275998459
-6.899003859164687e-05
-0.00018020799663000464
-0.0002592324507125869
0.0021707918312579067
0.002084037891997823
0.0018008613725311803
0.00188352498352034
0.0019371679107443055
0.0016520561345405953
0.0016135937172769004
0.001266198283857055
0.0011577850762773331
0.0007978821045496485
0.0006535740710505228
0.0003210316824617086
0.00018079986692035952
-6.646048373291929e-05
-0.0001620816839577598
-0.00026155395962924036
0.0015528755227536624
0.0010566797280538109
0.0011281656091546228
0.0006908314618536365
0.0005574660722829943
0.00012566725050265683
0.00027272772507640994
-7.604988406529934e-05
-0.0001786500807841178
-0.00025907809435166395
0.0015751232119213942
0.001470182593978236
0.0012915832232524645
0.0013444370150330629
0.0010286582691635255
0.0009930154301564013
0.0005697801961405767
0.0006638692528613285
0.0002640724351459169
0.0001509776085987248
-7.952991544219204e-05
-0.0001659181253578039
-0.0002611809928825475
0.000897444874446261
0.0010093227368522632
0.0005861197193716766
0.00045383643425333473
0.00022606466903369704
9.666203944621052e-05
-8.991828265232275e-05
-0.00017986469094923518
-0.0002602114283786997
0.0009693695374142546
0.0008788972478192689
0.0007459431007963276
0.0007407955287678386
0.00043872414718666377
0.0004896946897928457
0.00018136220168048068
9.76568804571259e-05
-0.0001024298309294215
-0.00017568078532841002
-0.00026083970523617633
0.0004060855913077799
0.0005906654734728205
0.0002973691004703321
5.881075660959977e-05
9.507600411581169e-05
-0.0001255709186904929
-0.00018473290893552519
-0.0002592971122293814
0.0004283184404376809
0.0004735738981434725
0.0002855530185190937
0.00028302850324226985
7.971012941128949e-05
2.840934414438662e-05
-0.0001332394358892582
-0.00018991993085297877
-0.0002606347662281605
0.00018275457586085215
0.00013182677557014997
-2.1351893427810492e-05
-8.146190105105465e-05
-0.00015762480428665326
-0.00020998678110400174
-0.0002600397745483133
7.317169301707383e-05
0.00011728833204317939
-2.9680447957359215e-05
-5.1855466946744865e-05
-0.00016892775638380908
-0.00020769906715891405
-0.0002605690354818631
-4.3746321842569465e-05
-0.0001266594268378634
-0.00011993275193701934
-0.00020372826330882627
-0.00023033160472531265
-0.00025965447748171384
-0.00013583315611305824
-0.00013214660920025128
-0.00020675822862401463
-0.00022824033411830472
-0.00026028858666361456
-0.00020946800640036164
-0.00020431498478914008
-0.000236402357907445
-0.00025053345752755663
-0.0002615727581941873
-0.00023878608140949465
-0.0002480358701217853
-0.0002620221566510972
-0.0002600105972054412
-0.00025855170421528134
-0.0002653747636227158
-0.0002653716123734226
-0.0002611804117423689
